<define-tag pagetitle>DLA-3224-1 http-parser</define-tag>
<define-tag report_date>2022-12-05</define-tag>
<define-tag secrefs>CVE-2020-8287 Bug#1016690</define-tag>
<define-tag packages>http-parser</define-tag>
<define-tag isvulnerable>yes</define-tag>
<define-tag fixed>yes</define-tag>
<define-tag fixed-section>no</define-tag>

#use wml::debian::security

