<define-tag pagetitle>DLA-3246-1 node-hawk</define-tag>
<define-tag report_date>2022-12-23</define-tag>
<define-tag secrefs>CVE-2022-29167</define-tag>
<define-tag packages>node-hawk</define-tag>
<define-tag isvulnerable>yes</define-tag>
<define-tag fixed>yes</define-tag>
<define-tag fixed-section>no</define-tag>

#use wml::debian::security
