<define-tag pagetitle>DSA-4606-1 chromium</define-tag>
<define-tag report_date>2020-1-20</define-tag>
<define-tag secrefs>CVE-2019-13725 CVE-2019-13726 CVE-2019-13727 CVE-2019-13728 CVE-2019-13729 CVE-2019-13730 CVE-2019-13732 CVE-2019-13734 CVE-2019-13735 CVE-2019-13736 CVE-2019-13737 CVE-2019-13738 CVE-2019-13739 CVE-2019-13740 CVE-2019-13741 CVE-2019-13742 CVE-2019-13743 CVE-2019-13744 CVE-2019-13745 CVE-2019-13746 CVE-2019-13747 CVE-2019-13748 CVE-2019-13749 CVE-2019-13750 CVE-2019-13751 CVE-2019-13752 CVE-2019-13753 CVE-2019-13754 CVE-2019-13755 CVE-2019-13756 CVE-2019-13757 CVE-2019-13758 CVE-2019-13759 CVE-2019-13761 CVE-2019-13762 CVE-2019-13763 CVE-2019-13764 CVE-2019-13767 CVE-2020-6377 CVE-2020-6378 CVE-2020-6379 CVE-2020-6380</define-tag>
<define-tag packages>chromium</define-tag>
<define-tag isvulnerable>yes</define-tag>
<define-tag fixed>yes</define-tag>
<define-tag fixed-section>no</define-tag>

#use wml::debian::security



</dl>
