<define-tag pagetitle>DLA-2618-3 smarty3</define-tag>
<define-tag report_date>2021-10-20</define-tag>
<define-tag secrefs>CVE-2018-13982 Bug#989141</define-tag>
<define-tag packages>smarty3</define-tag>
<define-tag isvulnerable>yes</define-tag>
<define-tag fixed>yes</define-tag>
<define-tag fixed-section>no</define-tag>

#use wml::debian::security

