<define-tag pagetitle>DLA-2748-1 tnef</define-tag>
<define-tag report_date>2021-8-23</define-tag>
<define-tag secrefs>CVE-2019-18849</define-tag>
<define-tag packages>tnef</define-tag>
<define-tag isvulnerable>yes</define-tag>
<define-tag fixed>yes</define-tag>
<define-tag fixed-section>no</define-tag>

#use wml::debian::security

