<define-tag pagetitle>DSA-5397-1 wpewebkit</define-tag>
<define-tag report_date>2023-5-03</define-tag>
<define-tag secrefs>CVE-2022-0108 CVE-2022-32885 CVE-2023-27932 CVE-2023-27954 CVE-2023-28205</define-tag>
<define-tag packages>wpewebkit</define-tag>
<define-tag isvulnerable>yes</define-tag>
<define-tag fixed>yes</define-tag>
<define-tag fixed-section>no</define-tag>

#use wml::debian::security



</dl>
