<define-tag pagetitle>DSA-5480-1 linux</define-tag>
<define-tag report_date>2023-8-18</define-tag>
<define-tag secrefs>CVE-2022-4269 CVE-2022-39189 CVE-2023-1206 CVE-2023-1380 CVE-2023-2002 CVE-2023-2007 CVE-2023-2124 CVE-2023-2269 CVE-2023-2898 CVE-2023-3090 CVE-2023-3111 CVE-2023-3212 CVE-2023-3268 CVE-2023-3338 CVE-2023-3389 CVE-2023-3609 CVE-2023-3611 CVE-2023-3776 CVE-2023-3863 CVE-2023-4004 CVE-2023-4128 CVE-2023-4132 CVE-2023-4147 CVE-2023-4194 CVE-2023-4273 CVE-2023-20588 CVE-2023-21255 CVE-2023-21400 CVE-2023-31084 CVE-2023-34319 CVE-2023-35788 CVE-2023-40283</define-tag>
<define-tag packages>linux</define-tag>
<define-tag isvulnerable>yes</define-tag>
<define-tag fixed>yes</define-tag>
<define-tag fixed-section>no</define-tag>

#use wml::debian::security



</dl>
