<define-tag pagetitle>DSA-5432-1 xmltooling</define-tag>
<define-tag report_date>2023-6-18</define-tag>
<define-tag secrefs>CVE-2023-36661</define-tag>
<define-tag packages>xmltooling</define-tag>
<define-tag isvulnerable>yes</define-tag>
<define-tag fixed>yes</define-tag>
<define-tag fixed-section>no</define-tag>

#use wml::debian::security



</dl>
