<define-tag pagetitle>DSA-5438-1 asterisk</define-tag>
<define-tag report_date>2023-6-22</define-tag>
<define-tag secrefs>CVE-2023-27585 Bug#1036697</define-tag>
<define-tag packages>asterisk</define-tag>
<define-tag isvulnerable>yes</define-tag>
<define-tag fixed>yes</define-tag>
<define-tag fixed-section>no</define-tag>

#use wml::debian::security



</dl>
