<define-tag pagetitle>DLA-58-2 apt</define-tag>
<define-tag report_date>2014-10-14</define-tag>
<define-tag secrefs>CVE-2014-6273</define-tag>
<define-tag packages>apt</define-tag>
<define-tag isvulnerable>yes</define-tag>
<define-tag fixed>yes</define-tag>
<define-tag fixed-section>no</define-tag>

#use wml::debian::security

