<define-tag pagetitle>DLA-72-2 rsyslog</define-tag>
<define-tag report_date>2014-10-20</define-tag>
<define-tag packages>rsyslog</define-tag>
<define-tag isvulnerable>yes</define-tag>
<define-tag fixed>yes</define-tag>
<define-tag fixed-section>no</define-tag>

#use wml::debian::security

