<define-tag pagetitle>DLA-1171-1 libxml-libxml-perl</define-tag>
<define-tag report_date>2017-11-14</define-tag>
<define-tag secrefs>CVE-2017-10672 Bug#866676</define-tag>
<define-tag packages>libxml-libxml-perl</define-tag>
<define-tag isvulnerable>yes</define-tag>
<define-tag fixed>yes</define-tag>
<define-tag fixed-section>no</define-tag>

#use wml::debian::security

