<define-tag pagetitle>DLA-1088-1 irssi</define-tag>
<define-tag report_date>2017-9-4</define-tag>
<define-tag secrefs>CVE-2017-9468 CVE-2017-9469 Bug##864400</define-tag>
<define-tag packages>irssi</define-tag>
<define-tag isvulnerable>yes</define-tag>
<define-tag fixed>yes</define-tag>
<define-tag fixed-section>no</define-tag>

#use wml::debian::security

