<define-tag pagetitle>DLA-1225-1 asterisk</define-tag>
<define-tag report_date>2017-12-30</define-tag>
<define-tag secrefs>CVE-2017-17090 Bug#883342</define-tag>
<define-tag packages>asterisk</define-tag>
<define-tag isvulnerable>yes</define-tag>
<define-tag fixed>yes</define-tag>
<define-tag fixed-section>no</define-tag>

#use wml::debian::security

