<define-tag pagetitle>DLA-3583-1 glib2.0</define-tag>
<define-tag report_date>2023-09-25</define-tag>
<define-tag secrefs>CVE-2023-29499 CVE-2023-32611 CVE-2023-32665</define-tag>
<define-tag packages>glib2.0</define-tag>
<define-tag isvulnerable>yes</define-tag>
<define-tag fixed>yes</define-tag>
<define-tag fixed-section>no</define-tag>

#use wml::debian::security

