<define-tag pagetitle>DLA-3422-1 postgresql-11</define-tag>
<define-tag report_date>2023-05-15</define-tag>
<define-tag secrefs>CVE-2023-2454 CVE-2023-2455</define-tag>
<define-tag packages>postgresql-11</define-tag>
<define-tag isvulnerable>yes</define-tag>
<define-tag fixed>yes</define-tag>
<define-tag fixed-section>no</define-tag>

#use wml::debian::security

