<define-tag pagetitle>DLA-3394-1 asterisk</define-tag>
<define-tag report_date>2023-4-19</define-tag>
<define-tag secrefs>CVE-2023-27585</define-tag>
<define-tag packages>asterisk</define-tag>
<define-tag isvulnerable>yes</define-tag>
<define-tag fixed>yes</define-tag>
<define-tag fixed-section>no</define-tag>

#use wml::debian::security

