<define-tag pagetitle>DLA-3299-1 node-qs</define-tag>
<define-tag report_date>2023-01-30</define-tag>
<define-tag secrefs>CVE-2022-24999</define-tag>
<define-tag packages>node-qs</define-tag>
<define-tag isvulnerable>yes</define-tag>
<define-tag fixed>yes</define-tag>
<define-tag fixed-section>no</define-tag>

#use wml::debian::security

