<define-tag pagetitle>DLA-3460-1 python-mechanize</define-tag>
<define-tag report_date>2023-06-20</define-tag>
<define-tag secrefs>CVE-2021-32837</define-tag>
<define-tag packages>python-mechanize</define-tag>
<define-tag isvulnerable>yes</define-tag>
<define-tag fixed>yes</define-tag>
<define-tag fixed-section>no</define-tag>

#use wml::debian::security

