<define-tag pagetitle>DLA-2096-1 ruby-rack-cors</define-tag>
<define-tag report_date>2020-02-07</define-tag>
<define-tag secrefs>CVE-2019-18978</define-tag>
<define-tag packages>ruby-rack-cors</define-tag>
<define-tag isvulnerable>yes</define-tag>
<define-tag fixed>yes</define-tag>
<define-tag fixed-section>no</define-tag>

#use wml::debian::security

