<define-tag pagetitle>DLA-1692-1 phpmyadmin</define-tag>
<define-tag report_date>2019-02-27</define-tag>
<define-tag secrefs>CVE-2019-6799 Bug#920823</define-tag>
<define-tag packages>phpmyadmin</define-tag>
<define-tag isvulnerable>yes</define-tag>
<define-tag fixed>yes</define-tag>
<define-tag fixed-section>no</define-tag>

#use wml::debian::security

