<define-tag pagetitle>DLA-2024-1 phpmyadmin</define-tag>
<define-tag report_date>2019-12-08</define-tag>
<define-tag secrefs>CVE-2019-19617</define-tag>
<define-tag packages>phpmyadmin</define-tag>
<define-tag isvulnerable>yes</define-tag>
<define-tag fixed>yes</define-tag>
<define-tag fixed-section>no</define-tag>

#use wml::debian::security

