<define-tag pagetitle>DLA-607-1 tryton-server</define-tag>
<define-tag report_date>2016-8-31</define-tag>
<define-tag secrefs>CVE-2016-1242</define-tag>
<define-tag packages>tryton-server</define-tag>
<define-tag isvulnerable>yes</define-tag>
<define-tag fixed>yes</define-tag>
<define-tag fixed-section>no</define-tag>

#use wml::debian::security

